module bitbucket.org/Udevs/position_service

go 1.16

require (
	github.com/golang/protobuf v1.5.2 // indirect
	github.com/google/uuid v1.3.0
	github.com/jmoiron/sqlx v1.3.3
	github.com/lib/pq v1.2.0
	github.com/spf13/cast v1.3.1
	github.com/stretchr/testify v1.7.0 // indirect
	go.uber.org/zap v1.16.0
	google.golang.org/grpc v1.37.0
	google.golang.org/protobuf v1.27.1
)
